Growing a book in the open
…
# Unnest tokens to tidy text

```r
library(tidytext)

tidy_books <- janeaustenr::austen_books() %>%
  unnest_tokens(word, text) 

tidy_books %>%
  anti_join(stop_words) %>%
  count(word, sort = TRUE)
```

```
## # A tibble: 13,914 x 2
##    word       n
##    <chr>  <int>
##  1 miss    1855
##  2 time    1337
##  3 fanny    862
##  4 dear     822
##  5 lady     817
##  6 sir      806
##  7 day      797
##  8 emma     787
##  9 sister   727
## 10 house    699
## # ... with 13,904 more rows
```
…
```r
comparison <- tidy(AssociatedPress) %>%
  count(word = term) %>%
  rename(AP = n) %>%
  inner_join(count(tidy_books, word)) %>%
  rename(Austen = n) %>%
  mutate(AP = AP / sum(AP),
         Austen = Austen / sum(Austen))

comparison
```

```
## # A tibble: 4,735 x 3
##    word             AP     Austen
##    <chr>         <dbl>      <dbl>
##  1 abandoned 0.000169  0.00000461
##  2 abide     0.0000289 0.0000184 
##  3 abilities 0.0000289 0.000134  
##  4 ability   0.000236  0.0000138 
##  5 able      0.000661  0.00141   
##  6 abroad    0.000193  0.000166  
##  7 abrupt    0.0000289 0.0000230 
##  8 absence   0.0000772 0.000511  
##  9 absent    0.0000434 0.000230  
## 10 absolute  0.0000531 0.000120  
## # ... with 4,725 more rows
```
…
